<svg xmlns="http://www.w3.org/2000/svg" width="16" height="16" viewBox="0 0 16 16">
  <path fill="#ffffff" fill-rule="evenodd" d="M5.9,5.666 L8.27,5.666 L8.42,6.8 L8.498,6.8 C9.0512,5.9654 9.9992,5.4788 11,5.516 C12.68,5.516 14,6.662 14,9.032 L14,14 L11.324,14 L11.324,9.416 C11.324,8.348 10.94,7.58 10.022,7.58 C9.425,7.6196 8.9306,8.0594 8.822,8.648 C8.7554,8.8412 8.729,9.0446 8.744,9.248 L8.744,14 L6.05,14 L6.05,8.27 C6.05,8.27 5.972,6.356 5.9,5.666 Z M2,14 L2,5.366 L4.676,5.366 L4.676,14 L2,14 Z M4.676,3.374 C4.7102,4.0592 4.1822,4.6418 3.497,4.676 C3.4562,4.6784 3.4148,4.6784 3.374,4.676 C2.6888,4.7066 2.1086,4.1762 2.0774,3.491 C2.0756,3.452 2.0762,3.413 2.078,3.374 C2.0678,2.6408 2.6414,2.0324 3.374,2 C4.109,2.0294 4.6862,2.639 4.676,3.374 Z"/>
</svg>
